{
    "data": [{
            "id": 321647,
            "status": 4,
            "type": 1,
            "spicy": false,
            "socialTruncate": false,
            "title": "Looking for another one!",
            "content": "",
            "content_hidden": "Today, I finally got a Christmas gift, a calligraphy set, for my father that I have been looking for for a month. My dad came home happily with the same calligraphy set today, saying that he surprised himself for Christmas. He got it cheaper than me. FML",
            "created": "2019-12-17T19:18:13+01:00",
            "updated": "2019-12-17T19:18:13+01:00",
            "published": "2019-12-20T01:00:00+01:00",
            "user": 1493432994,
            "author": "Anonymous",
            "gender": 1,
            "layout": 0,
            "flag": 0,
            "origin": "api",
            "apikey": "4dccf019bdfac",
            "vote": 1,
            "site": 2,
            "siteorig": null,
            "ip": null,
            "city": null,
            "country": null,
            "countrycode": null,
            "area": null,
            "slug": "looking-for-another-one",
            "bitly": "http://bit.ly/2r0ahUo",
            "metrics": {
                "article": 321647,
                "comment": 10,
                "favorite": 3,
                "reports": 0,
                "mod_positive": 68,
                "mod_negative": 53,
                "votes_up": 2048,
                "votes_down": 212,
                "smiley_amusing": 48,
                "smiley_funny": 7,
                "smiley_weird": 23,
                "smiley_hilarious": 101
            },
            "usermetrics": {
                "favorite": false,
                "smiley": null,
                "votes": null
            },
            "keywords": [],
            "images": [{
                    "url": "https://www.fmylife.com/img/d48c09e091900561e7a7ef30145da98e.jpeg/medium/",
                    "usage": 1,
                    "name": "d48c09e091900561e7a7ef30145da98e.jpeg",
                    "copyright": null,
                    "legend": null,
                    "width": 640,
                    "height": 480
                }
            ],
            "videos": [],
            "openview": 0,
            "url": "https://www.fmylife.com/article/looking-for-another-one_321647.html?modeapp=1",
            "paragraphs": []
        }, {
            "id": 321808,
            "status": 4,
            "type": 1,
            "spicy": true,
            "socialTruncate": true,
            "title": "After vacation",
            "content": "",
            "content_hidden": "Today, I got back from vacation and walked in on my boyfriend and my brother in my bed. FML",
            "created": "2019-12-20T13:32:09+01:00",
            "updated": "2019-12-20T13:32:09+01:00",
            "published": "2019-12-23T18:00:00+01:00",
            "user": 1493432994,
            "author": null,
            "gender": 1,
            "layout": 0,
            "flag": 0,
            "origin": null,
            "apikey": null,
            "vote": 1,
            "site": 2,
            "siteorig": null,
            "ip": null,
            "city": null,
            "country": null,
            "countrycode": null,
            "area": null,
            "slug": "after-vacation",
            "bitly": "http://bit.ly/34FpnfX",
            "metrics": {
                "article": 321808,
                "comment": 7,
                "favorite": 16,
                "reports": 0,
                "mod_positive": 0,
                "mod_negative": 0,
                "votes_up": 3299,
                "votes_down": 252,
                "smiley_amusing": 53,
                "smiley_funny": 13,
                "smiley_weird": 327,
                "smiley_hilarious": 98
            },
            "usermetrics": {
                "favorite": false,
                "smiley": null,
                "votes": null
            },
            "keywords": [],
            "images": [{
                    "url": "https://www.fmylife.com/img/a415f25ca31d6dd699bbc85f66292ce2.jpeg/medium/",
                    "usage": 1,
                    "name": "a415f25ca31d6dd699bbc85f66292ce2.jpeg",
                    "copyright": null,
                    "legend": null,
                    "width": 640,
                    "height": 480
                }
            ],
            "videos": [],
            "openview": 0,
            "url": "https://www.fmylife.com/article/after-vacation_321808.html?modeapp=1",
            "paragraphs": []
        }, {
            "id": 146574,
            "status": 4,
            "type": 1,
            "spicy": false,
            "socialTruncate": false,
            "title": null,
            "content": "",
            "content_hidden": "Today, I saw a 10 dollar bill on the street, as I went to grab it, it was pulled away by a string. I don't know what's worse, the fact that I was tricked by teenagers or that I tripped and fell as I went for it. FML",
            "created": "2011-12-06T14:33:34+01:00",
            "updated": "2017-06-29T17:51:09+02:00",
            "published": "2011-12-06T14:33:34+01:00",
            "user": 18443890,
            "author": "aceshot97",
            "gender": null,
            "layout": 0,
            "flag": 0,
            "origin": "api",
            "apikey": "49b3d5acbfcbc",
            "vote": 1,
            "site": 2,
            "siteorig": null,
            "ip": "209.221.90.250",
            "city": null,
            "country": "Canada",
            "countrycode": null,
            "area": "Ontario",
            "slug": "today-i-saw-a-10-dollar-bill-on-the-street-as-i-went-to-grab-it-it-was-pulled-away-by-a-string-i",
            "bitly": null,
            "metrics": {
                "article": 146574,
                "comment": 85,
                "favorite": 2,
                "reports": 0,
                "mod_positive": 0,
                "mod_negative": 0,
                "votes_up": 30424,
                "votes_down": 7541,
                "smiley_amusing": 1,
                "smiley_funny": 4,
                "smiley_weird": 3,
                "smiley_hilarious": 42
            },
            "usermetrics": {
                "favorite": false,
                "smiley": null,
                "votes": null
            },
            "keywords": [{
                    "uid": 22,
                    "label": "Health",
                    "rub": true
                }
            ],
            "images": [{
                    "url": "https://www.fmylife.com/img/1c5ebfb8bdb6de8b770ac99b71dfeeaf.jpeg/medium/",
                    "usage": 1,
                    "name": "1c5ebfb8bdb6de8b770ac99b71dfeeaf.jpeg",
                    "copyright": null,
                    "legend": null,
                    "width": 640,
                    "height": 480
                }
            ],
            "videos": [],
            "openview": 0,
            "url": "https://www.fmylife.com/article/today-i-saw-a-10-dollar-bill-on-the-street-as-i-went-to-grab-it-it-was-pulled-away-by-a-string-i_146574.html?modeapp=1",
            "paragraphs": []
        }, {
            "id": 149584,
            "status": 4,
            "type": 1,
            "spicy": false,
            "socialTruncate": false,
            "title": null,
            "content": "",
            "content_hidden": "Today, I had to explain to my girlfriend why being with a girl while being with me is cheating. FML",
            "created": "2011-04-30T05:06:58+02:00",
            "updated": "2017-06-29T17:51:09+02:00",
            "published": "2011-04-30T05:06:58+02:00",
            "user": 15985772,
            "author": "Imrickar",
            "gender": null,
            "layout": 0,
            "flag": 0,
            "origin": "api",
            "apikey": "49b3d5acbfcbc",
            "vote": 1,
            "site": 2,
            "siteorig": null,
            "ip": "108.112.111.227",
            "city": null,
            "country": "United States",
            "countrycode": null,
            "area": "",
            "slug": "today-i-had-to-explain-to-my-girlfriend-why-being-with-a-girl-while-being-with-me-is-cheating-fml",
            "bitly": null,
            "metrics": {
                "article": 149584,
                "comment": 191,
                "favorite": 6,
                "reports": 0,
                "mod_positive": 0,
                "mod_negative": 0,
                "votes_up": 43094,
                "votes_down": 7797,
                "smiley_amusing": 12,
                "smiley_funny": 3,
                "smiley_weird": 19,
                "smiley_hilarious": 19
            },
            "usermetrics": {
                "favorite": false,
                "smiley": null,
                "votes": null
            },
            "keywords": [{
                    "uid": 16,
                    "label": "Love",
                    "rub": true
                }
            ],
            "images": [{
                    "url": "https://www.fmylife.com/img/86f50f52a17d361ee354f103a827b455.jpeg/medium/",
                    "usage": 1,
                    "name": "86f50f52a17d361ee354f103a827b455.jpeg",
                    "copyright": null,
                    "legend": null,
                    "width": 640,
                    "height": 480
                }
            ],
            "videos": [],
            "openview": 0,
            "url": "https://www.fmylife.com/article/today-i-had-to-explain-to-my-girlfriend-why-being-with-a-girl-while-being-with-me-is-cheating-fml_149584.html?modeapp=1",
            "paragraphs": []
        }, {
            "id": 154296,
            "status": 4,
            "type": 1,
            "spicy": false,
            "socialTruncate": false,
            "title": null,
            "content": "",
            "content_hidden": "Today, my mother who is 75 years old just told me and my sister that we are adopted. I'm 45 years old and my sister is 49. FML",
            "created": "2010-02-26T05:02:34+01:00",
            "updated": "2017-06-29T17:51:09+02:00",
            "published": "2010-02-26T05:02:34+01:00",
            "user": 8654763,
            "author": "cmendez",
            "gender": null,
            "layout": 0,
            "flag": 0,
            "origin": "web",
            "apikey": "",
            "vote": 1,
            "site": 2,
            "siteorig": null,
            "ip": "75.164.3.118",
            "city": null,
            "country": "United States",
            "countrycode": null,
            "area": "Arizona",
            "slug": "today-my-mother-who-is-75-years-old-just-told-me-and-my-sister-that-we-are-adopted-i-m-45-years-ol",
            "bitly": null,
            "metrics": {
                "article": 154296,
                "comment": 106,
                "favorite": 2,
                "reports": 0,
                "mod_positive": 0,
                "mod_negative": 0,
                "votes_up": 32778,
                "votes_down": 2289,
                "smiley_amusing": 8,
                "smiley_funny": 2,
                "smiley_weird": 24,
                "smiley_hilarious": 16
            },
            "usermetrics": {
                "favorite": false,
                "smiley": null,
                "votes": null
            },
            "keywords": [{
                    "uid": 26,
                    "label": "Miscellaneous",
                    "rub": true
                }
            ],
            "images": [{
                    "url": "https://www.fmylife.com/img/3741c86551ef618a27d45650faa8ab43.jpeg/medium/",
                    "usage": 1,
                    "name": "3741c86551ef618a27d45650faa8ab43.jpeg",
                    "copyright": null,
                    "legend": null,
                    "width": 640,
                    "height": 480
                }
            ],
            "videos": [],
            "openview": 0,
            "url": "https://www.fmylife.com/article/today-my-mother-who-is-75-years-old-just-told-me-and-my-sister-that-we-are-adopted-i-m-45-years-ol_154296.html?modeapp=1",
            "paragraphs": []
        }
    ],
    "meta": {
        "page": 1,
        "per_page": 5,
        "page_count": 9757,
        "total_count": 48785
    },
    "badge": []
}
